@startuml
class Utilisateur <<abstract>> {
 login: String {key}
 latitude: String
 longitude: String
 localiser(zoom: Integer)
 utilisateursProches()
}

class Personne {
 nom: String
 prenom: String
 inscription: Date
 anniversaire: Date
 listeCommunautes()
}

class Communaute {
 description: String
 creation: Date
}

class Membre {
 exclu: Boolean
 nbContre()
}

Utilisateur <|-- Personne
Utilisateur <|-- Communaute
Personne "*" -- "*" Communaute: se déclare dans
(Personne, Communaute).. Membre
Membre "*" <-- "*" Membre: Vote

class Relation {
 description: String
}

Utilisateur "*" <-- "*" Utilisateur : lié à
(Utilisateur, Utilisateur).. Relation

class Compte {
 clePublique: String {key}
 montantG1: Float
}

Utilisateur *-- "0..1" Compte: possède

class SavoirFaire {
 nom: String {key}
}

class Possede_SavoirFaire {
 degre: Integer [1..5]
}

Utilisateur "*" -- "*" SavoirFaire
(Utilisateur, SavoirFaire).. Possede_SavoirFaire

class Message {
 objet: String
 contenu: String
 date: Date
 filHistorique()
}

Message "*" -- "1" Utilisateur : envoie
Message "*" -- "1" Utilisateur : reçoit
Message "1" <-- "*" Message: référence

class Service <<abstract>> {
 id: Integer {key}
 nom: String
 description: String
}

class ContreMonnaie {
 prix: Float
}

Service <|-- ContreService
Service <|-- SansContrepartie
Service <|-- ContreMonnaie

Utilisateur "*" -- "*" Service: propose
Service "*" -- "*" SavoirFaire: lié à
Service "1" <-- "*" ContreService: échange
@enduml